<svg xmlns="http://www.w3.org/2000/svg" width="14.02" height="14" viewBox="0 0 14.02 14">
  <g id="arrow_icon" data-name="arrow icon" transform="translate(-2511.98 -1763)">
    <path id="arrow_icon-2" data-name="arrow icon" d="M2526,1770l-7.427,7-1.535-1.727,4.861-4.264h-9.917l.064-2.035h9.853l-4.861-4.283,1.651-1.691Z" fill="#b3b3b3"/>
  </g>
</svg>
