<svg xmlns="http://www.w3.org/2000/svg" width="20.668" height="10.061" viewBox="0 0 20.668 10.061">
  <g id="arrow_icon" data-name="arrow icon" transform="translate(20.668 10.061) rotate(180)">
    <path id="arrow_icon-2" data-name="arrow icon" d="M5.3,10.061,6,9.3,2.013,5.519H20.668v-1H2.013L6,.77,5.216,0,0,5.014l5.3,5.047"/>
  </g>
</svg>
