<svg xmlns="http://www.w3.org/2000/svg" width="44.348" height="44.348" viewBox="0 0 44.348 44.348">
  <g id="Group_153" data-name="Group 153" transform="translate(0.271 0.269)">
    <g id="Group_169" data-name="Group 169" transform="translate(0 0)">
      <path id="Path_185" data-name="Path 185" d="M.681,4.09,3.6,9.2a.729.729,0,0,0,.456.346l2.725.681,9.346,9.346,1.033-1.032L7.67,9.05a.728.728,0,0,0-.339-.192L4.712,8.2,2.226,3.847,4.358,1.715,8.714,4.2l.657,2.618a.728.728,0,0,0,.192.339l9.492,9.492,1.032-1.033L10.741,6.275,10.06,3.552A.731.731,0,0,0,9.714,3.1L4.6.175a.73.73,0,0,0-.876.117L.806,3.213A.73.73,0,0,0,.681,4.09Z" transform="translate(-0.585 -0.073)" fill="#fff" stroke="#fff" stroke-width="0.5"/>
      <path id="Path_186" data-name="Path 186" d="M191.183,174.583,175.12,190.647l-1.033-1.033,16.063-16.063Z" transform="translate(-160.73 -160.193)" fill="#fff" stroke="#fff" stroke-width="0.5"/>
      <path id="Path_187" data-name="Path 187" d="M55.908,398.805a.73.73,0,0,0-.626-.354H50.9a.73.73,0,0,0-.626.354l-2.191,3.651a.73.73,0,0,0,0,.752l2.191,3.651a.73.73,0,0,0,.626.354h4.381a.73.73,0,0,0,.626-.354l2.19-3.651a.73.73,0,0,0,0-.752Zm-1.039,6.947H51.315l-1.752-2.92,1.752-2.921h3.554l1.752,2.921Z" transform="translate(-44.33 -367.784)" fill="#fff" stroke="#fff" stroke-width="0.5"/>
      <path id="Path_188" data-name="Path 188" d="M35.594,17.525A8.731,8.731,0,0,0,44.087,6.646a.73.73,0,0,0-1.224-.34l-4.545,4.542-3.606-1.2-1.2-3.605L38.053,1.5A.73.73,0,0,0,37.711.27,8.735,8.735,0,0,0,26.832,8.763a8.569,8.569,0,0,0,.177,1.711l-15.99,15.99a8.613,8.613,0,0,0-1.71-.177,8.762,8.762,0,1,0,8.761,8.762,8.591,8.591,0,0,0-.177-1.711l3.828-3.828L23.4,31.184a.73.73,0,0,0,1.033,0l.365-.365a.819.819,0,0,1,1.159,1.157h0l-.365.365a.73.73,0,0,0,0,1.032l8.71,8.71a5.893,5.893,0,1,0,8.371-8.3l-.038-.038-8.71-8.71a.73.73,0,0,0-1.032,0l-.365.365a.819.819,0,0,1-1.16-1.156h0l.365-.365a.73.73,0,0,0,0-1.032l-1.674-1.674,3.828-3.828A8.591,8.591,0,0,0,35.594,17.525ZM38.462,42.35a4.438,4.438,0,0,1-1.553-.283l5.7-5.7a4.428,4.428,0,0,1-4.149,5.986ZM30.191,23.374A2.279,2.279,0,0,0,33.4,26.582l8.194,8.2c.089.089.172.183.253.279L35.607,41.3c-.1-.08-.19-.163-.279-.253l-8.2-8.2a2.279,2.279,0,0,0-3.213-3.208l-1.168-1.168,6.275-6.266Zm2.948-7.344L16.576,32.59a.731.731,0,0,0-.193.694,7.35,7.35,0,1,1-5.309-5.31.737.737,0,0,0,.694-.193l16.559-16.56a.73.73,0,0,0,.192-.694,7.266,7.266,0,0,1,7.49-9.054L32.157,5.327a.729.729,0,0,0-.177.747l1.46,4.381a.731.731,0,0,0,.462.461l4.381,1.46a.73.73,0,0,0,.747-.176l3.852-3.851q.013.209.013.414a7.264,7.264,0,0,1-9.066,7.074.731.731,0,0,0-.694.192h0Z" transform="translate(-0.547 0)" fill="#fff" stroke="#fff" stroke-width="0.5"/>
      <path id="Path_189" data-name="Path 189" d="M391.13,389.557,390.1,390.59l-7.3-7.3,1.032-1.033Z" transform="translate(-353.376 -352.835)" fill="#fff" stroke="#fff" stroke-width="0.5"/>
    </g>
  </g>
</svg>
