<svg xmlns="http://www.w3.org/2000/svg" width="21.438" height="20.097" viewBox="0 0 21.438 20.097">
  <g id="Group_4372" data-name="Group 4372" transform="translate(-556 -1212)">
    <path id="Path_2641" data-name="Path 2641" d="M559.2,1222.683v4.016h10.723V1220H559.2Zm1.341-1.341h8.04v1.341h-8.04Zm0,2.674h8.04v1.341h-8.04Zm0,0" transform="translate(2.158 5.398)" fill="#d9d9d9"/>
    <path id="Path_2642" data-name="Path 2642" d="M569.922,1216.016V1212H559.2v6.7h10.723Zm0,0" transform="translate(2.158)" fill="#d9d9d9"/>
    <path id="Path_2643" data-name="Path 2643" d="M574.755,1214.4h-1.341v4.025h-13.4V1214.4h-1.333a2.885,2.885,0,0,0-2.683,2.683v6.7a2.885,2.885,0,0,0,2.683,2.683h1.333v-4.025h13.4v4.025h1.341a2.885,2.885,0,0,0,2.683-2.683v-6.7a2.885,2.885,0,0,0-2.683-2.683Zm0,0" transform="translate(0 1.618)" fill="#d9d9d9"/>
  </g>
</svg>
