<svg xmlns="http://www.w3.org/2000/svg" width="27.866" height="27.875" viewBox="0 0 27.866 27.875">
  <g id="Group_362" data-name="Group 362" transform="translate(0 0)">
    <path id="Path_1991" data-name="Path 1991" d="M-34.081.145-59.31,14.7a1.307,1.307,0,0,0,.12,2.351l5.786,2.428L-37.766,5.7a.326.326,0,0,1,.468.452L-50.411,22.125v4.382a1.306,1.306,0,0,0,2.313.86l3.456-4.208L-37.859,26a1.31,1.31,0,0,0,1.8-.991L-32.143,1.5A1.307,1.307,0,0,0-34.081.145Z" transform="translate(59.99 0.031)" fill="#fff"/>
  </g>
</svg>
