<svg xmlns="http://www.w3.org/2000/svg" width="15.964" height="14" viewBox="0 0 15.964 14">
  <g id="Group_4268" data-name="Group 4268" transform="translate(2165.963 1777) rotate(180)">
    <g id="arrow_icon" data-name="arrow icon" transform="translate(-63)">
      <path id="arrow_icon-2" data-name="arrow icon" d="M2213,1770l7.429,7,1.535-1.727-4.861-4.264-1.088-1.009,1.088-1.025,4.861-4.283-1.651-1.691Z" fill="#b3b3b3"/>
    </g>
    <g id="arrow_icon-3" data-name="arrow icon" transform="translate(-56)">
      <path id="arrow_icon-4" data-name="arrow icon" d="M2213,1770l7.429,7,1.535-1.727-4.861-4.264-1.088-1.009,1.088-1.025,4.861-4.283-1.651-1.691Z" fill="#b3b3b3"/>
    </g>
  </g>
</svg>
