<svg id="done_icon" data-name="done icon" xmlns="http://www.w3.org/2000/svg" width="10" height="8.169" viewBox="0 0 10 8.169">
  <path id="done_icon-2" data-name="done icon" d="M3680,773.634l-4.674,4.9h0l-1.558,1.634-1.559-1.634.009-.009L3670,776.175l1.558-1.634,2.218,2.352,4.665-4.892,1.559,1.634Z" transform="translate(-3670 -772)" fill="#fff"/>
</svg>
