<svg xmlns="http://www.w3.org/2000/svg" width="25.602" height="25.602" viewBox="0 0 25.602 25.602">
  <g id="Group_4664" data-name="Group 4664" transform="translate(-549 -1205)">
    <path id="Path_2653" data-name="Path 2653" d="M572.469,1207.4H569v-1.6a.8.8,0,1,0-1.6,0v1.6h-4.8v-1.6a.8.8,0,1,0-1.6,0v1.6h-4.8v-1.6a.8.8,0,1,0-1.6,0v1.6h-3.469a2.136,2.136,0,0,0-2.133,2.133v18.934a2.136,2.136,0,0,0,2.133,2.137h21.336a2.136,2.136,0,0,0,2.133-2.137v-18.934a2.136,2.136,0,0,0-2.133-2.133Zm.531,21.067a.532.532,0,0,1-.531.535H551.133a.532.532,0,0,1-.531-.535v-18.934a.531.531,0,0,1,.531-.531H554.6v1.6a.8.8,0,0,0,1.6,0V1209H561v1.6a.8.8,0,0,0,1.6,0V1209h4.8v1.6a.8.8,0,0,0,1.6,0V1209h3.469a.531.531,0,0,1,.531.531Zm0,0" fill="#dcdcdc"/>
    <rect id="Rectangle_3705" data-name="Rectangle 3705" width="3.199" height="2.398" transform="translate(554.602 1214.602)" fill="#dcdcdc"/>
    <rect id="Rectangle_3706" data-name="Rectangle 3706" width="3.199" height="2.398" transform="translate(554.602 1218.602)" fill="#dcdcdc"/>
    <rect id="Rectangle_3707" data-name="Rectangle 3707" width="3.199" height="2.398" transform="translate(554.602 1222.602)" fill="#dcdcdc"/>
    <rect id="Rectangle_3708" data-name="Rectangle 3708" width="3.199" height="2.398" transform="translate(560.199 1222.602)" fill="#dcdcdc"/>
    <rect id="Rectangle_3709" data-name="Rectangle 3709" width="3.199" height="2.398" transform="translate(560.199 1218.602)" fill="#dcdcdc"/>
    <rect id="Rectangle_3710" data-name="Rectangle 3710" width="3.199" height="2.398" transform="translate(560.199 1214.602)" fill="#dcdcdc"/>
    <rect id="Rectangle_3711" data-name="Rectangle 3711" width="3.199" height="2.398" transform="translate(565.801 1222.602)" fill="#dcdcdc"/>
    <rect id="Rectangle_3712" data-name="Rectangle 3712" width="3.199" height="2.398" transform="translate(565.801 1218.602)" fill="#dcdcdc"/>
    <rect id="Rectangle_3713" data-name="Rectangle 3713" width="3.199" height="2.398" transform="translate(565.801 1214.602)" fill="#dcdcdc"/>
  </g>
</svg>
