<svg id="Group_3779" data-name="Group 3779" xmlns="http://www.w3.org/2000/svg" width="26.319" height="16" viewBox="0 0 26.319 16">
  <rect id="Rectangle_5" data-name="Rectangle 5" width="26.319" height="2" rx="1" transform="translate(0)" fill="#444b53"/>
  <rect id="Rectangle_6" data-name="Rectangle 6" width="26.319" height="2" rx="1" transform="translate(0 7)" fill="#444b53"/>
  <path id="Path_2304" data-name="Path 2304" d="M1,0H25.319a1,1,0,0,1,0,2H1A1,1,0,0,1,1,0Z" transform="translate(0 14)" fill="#444b53"/>
</svg>
