<svg xmlns="http://www.w3.org/2000/svg" width="33" height="30" viewBox="0 0 33 30">
  <g id="Group_4664" data-name="Group 4664" transform="translate(-808 -435)">
    <g id="ic_insert_drive_file" transform="translate(-689 96)">
      <rect id="Base" width="30" height="30" transform="translate(1500 339)" fill="none"/>
      <path id="Icon" d="M1089-185a2,2,0,0,0-1.99,2l-.01,16a2,2,0,0,0,1.99,2H1101a2.006,2.006,0,0,0,2-2v-12l-6-6Zm7,7v-5.5l5.5,5.5Z" transform="translate(420 529)" fill="#d9d9d9" fill-rule="evenodd"/>
    </g>
    <path id="Icon-2" data-name="Icon" d="M249-17v-3h-2v3h-3v2h3v3h2v-3h3v-2Z" transform="translate(564 464)" fill="#d9d9d9" fill-rule="evenodd"/>
  </g>
</svg>
