<svg xmlns="http://www.w3.org/2000/svg" width="62.096" height="213.931" viewBox="0 0 62.096 213.931">
  <g id="Group_11" data-name="Group 11" transform="translate(450.656 -343.652) rotate(90)">
    <g id="Group_6" data-name="Group 6">
      <circle id="Ellipse_2" data-name="Ellipse 2" cx="3.828" cy="3.828" r="3.828" transform="translate(343.652 388.56)" fill="#ebeff2"/>
      <circle id="Ellipse_3" data-name="Ellipse 3" cx="3.828" cy="3.828" r="3.828" transform="translate(364.279 388.56)" fill="#ebeff2"/>
      <circle id="Ellipse_4" data-name="Ellipse 4" cx="3.828" cy="3.828" r="3.828" transform="translate(384.907 388.56)" fill="#ebeff2"/>
      <circle id="Ellipse_5" data-name="Ellipse 5" cx="3.828" cy="3.828" r="3.828" transform="translate(405.534 388.56)" fill="#ebeff2"/>
      <circle id="Ellipse_6" data-name="Ellipse 6" cx="3.828" cy="3.828" r="3.828" transform="translate(426.162 388.56)" fill="#ebeff2"/>
      <circle id="Ellipse_7" data-name="Ellipse 7" cx="3.828" cy="3.828" r="3.828" transform="translate(446.789 388.56)" fill="#ebeff2"/>
      <circle id="Ellipse_8" data-name="Ellipse 8" cx="3.828" cy="3.828" r="3.828" transform="translate(467.417 388.56)" fill="#ebeff2"/>
      <circle id="Ellipse_9" data-name="Ellipse 9" cx="3.828" cy="3.828" r="3.828" transform="translate(488.044 388.56)" fill="#ebeff2"/>
      <circle id="Ellipse_10" data-name="Ellipse 10" cx="3.828" cy="3.828" r="3.828" transform="translate(508.672 388.56)" fill="#ebeff2"/>
      <circle id="Ellipse_11" data-name="Ellipse 11" cx="3.828" cy="3.828" r="3.828" transform="translate(529.3 388.56)" fill="#ebeff2"/>
      <circle id="Ellipse_12" data-name="Ellipse 12" cx="3.828" cy="3.828" r="3.828" transform="translate(549.927 388.56)" fill="#ebeff2"/>
    </g>
    <g id="Group_7" data-name="Group 7">
      <circle id="Ellipse_13" data-name="Ellipse 13" cx="3.828" cy="3.828" r="3.828" transform="translate(343.652 402.17)" fill="#ebeff2"/>
      <circle id="Ellipse_14" data-name="Ellipse 14" cx="3.828" cy="3.828" r="3.828" transform="translate(364.279 402.17)" fill="#ebeff2"/>
      <circle id="Ellipse_15" data-name="Ellipse 15" cx="3.828" cy="3.828" r="3.828" transform="translate(384.907 402.17)" fill="#ebeff2"/>
      <circle id="Ellipse_16" data-name="Ellipse 16" cx="3.828" cy="3.828" r="3.828" transform="translate(405.534 402.17)" fill="#ebeff2"/>
      <circle id="Ellipse_17" data-name="Ellipse 17" cx="3.828" cy="3.828" r="3.828" transform="translate(426.162 402.17)" fill="#ebeff2"/>
      <circle id="Ellipse_18" data-name="Ellipse 18" cx="3.828" cy="3.828" r="3.828" transform="translate(446.789 402.17)" fill="#ebeff2"/>
      <circle id="Ellipse_19" data-name="Ellipse 19" cx="3.828" cy="3.828" r="3.828" transform="translate(467.417 402.17)" fill="#ebeff2"/>
      <circle id="Ellipse_20" data-name="Ellipse 20" cx="3.828" cy="3.828" r="3.828" transform="translate(488.044 402.17)" fill="#ebeff2"/>
      <circle id="Ellipse_21" data-name="Ellipse 21" cx="3.828" cy="3.828" r="3.828" transform="translate(508.672 402.17)" fill="#ebeff2"/>
      <circle id="Ellipse_22" data-name="Ellipse 22" cx="3.828" cy="3.828" r="3.828" transform="translate(529.3 402.17)" fill="#ebeff2"/>
      <circle id="Ellipse_23" data-name="Ellipse 23" cx="3.828" cy="3.828" r="3.828" transform="translate(549.927 402.17)" fill="#ebeff2"/>
    </g>
    <g id="Group_8" data-name="Group 8">
      <circle id="Ellipse_24" data-name="Ellipse 24" cx="3.828" cy="3.828" r="3.828" transform="translate(343.652 415.78)" fill="#ebeff2"/>
      <circle id="Ellipse_25" data-name="Ellipse 25" cx="3.828" cy="3.828" r="3.828" transform="translate(364.279 415.78)" fill="#ebeff2"/>
      <circle id="Ellipse_26" data-name="Ellipse 26" cx="3.828" cy="3.828" r="3.828" transform="translate(384.907 415.78)" fill="#ebeff2"/>
      <circle id="Ellipse_27" data-name="Ellipse 27" cx="3.828" cy="3.828" r="3.828" transform="translate(405.534 415.78)" fill="#ebeff2"/>
      <circle id="Ellipse_28" data-name="Ellipse 28" cx="3.828" cy="3.828" r="3.828" transform="translate(426.162 415.78)" fill="#ebeff2"/>
      <circle id="Ellipse_29" data-name="Ellipse 29" cx="3.828" cy="3.828" r="3.828" transform="translate(446.789 415.78)" fill="#ebeff2"/>
      <circle id="Ellipse_30" data-name="Ellipse 30" cx="3.828" cy="3.828" r="3.828" transform="translate(467.417 415.78)" fill="#ebeff2"/>
      <circle id="Ellipse_31" data-name="Ellipse 31" cx="3.828" cy="3.828" r="3.828" transform="translate(488.044 415.78)" fill="#ebeff2"/>
      <circle id="Ellipse_32" data-name="Ellipse 32" cx="3.828" cy="3.828" r="3.828" transform="translate(508.672 415.78)" fill="#ebeff2"/>
      <circle id="Ellipse_33" data-name="Ellipse 33" cx="3.828" cy="3.828" r="3.828" transform="translate(529.3 415.78)" fill="#ebeff2"/>
      <circle id="Ellipse_34" data-name="Ellipse 34" cx="3.828" cy="3.828" r="3.828" transform="translate(549.927 415.78)" fill="#ebeff2"/>
    </g>
    <g id="Group_9" data-name="Group 9">
      <circle id="Ellipse_35" data-name="Ellipse 35" cx="3.828" cy="3.828" r="3.828" transform="translate(343.652 429.39)" fill="#ebeff2"/>
      <circle id="Ellipse_36" data-name="Ellipse 36" cx="3.828" cy="3.828" r="3.828" transform="translate(364.279 429.39)" fill="#ebeff2"/>
      <circle id="Ellipse_37" data-name="Ellipse 37" cx="3.828" cy="3.828" r="3.828" transform="translate(384.907 429.39)" fill="#ebeff2"/>
      <circle id="Ellipse_38" data-name="Ellipse 38" cx="3.828" cy="3.828" r="3.828" transform="translate(405.534 429.39)" fill="#ebeff2"/>
      <circle id="Ellipse_39" data-name="Ellipse 39" cx="3.828" cy="3.828" r="3.828" transform="translate(426.162 429.39)" fill="#ebeff2"/>
      <circle id="Ellipse_40" data-name="Ellipse 40" cx="3.828" cy="3.828" r="3.828" transform="translate(446.789 429.39)" fill="#ebeff2"/>
      <circle id="Ellipse_41" data-name="Ellipse 41" cx="3.828" cy="3.828" r="3.828" transform="translate(467.417 429.39)" fill="#ebeff2"/>
      <circle id="Ellipse_42" data-name="Ellipse 42" cx="3.828" cy="3.828" r="3.828" transform="translate(488.044 429.39)" fill="#ebeff2"/>
      <circle id="Ellipse_43" data-name="Ellipse 43" cx="3.828" cy="3.828" r="3.828" transform="translate(508.672 429.39)" fill="#ebeff2"/>
      <circle id="Ellipse_44" data-name="Ellipse 44" cx="3.828" cy="3.828" r="3.828" transform="translate(529.3 429.39)" fill="#ebeff2"/>
      <circle id="Ellipse_45" data-name="Ellipse 45" cx="3.828" cy="3.828" r="3.828" transform="translate(549.927 429.39)" fill="#ebeff2"/>
    </g>
    <g id="Group_10" data-name="Group 10">
      <circle id="Ellipse_46" data-name="Ellipse 46" cx="3.828" cy="3.828" r="3.828" transform="translate(343.652 443)" fill="#ebeff2"/>
      <circle id="Ellipse_47" data-name="Ellipse 47" cx="3.828" cy="3.828" r="3.828" transform="translate(364.279 443)" fill="#ebeff2"/>
      <circle id="Ellipse_48" data-name="Ellipse 48" cx="3.828" cy="3.828" r="3.828" transform="translate(384.907 443)" fill="#ebeff2"/>
      <circle id="Ellipse_49" data-name="Ellipse 49" cx="3.828" cy="3.828" r="3.828" transform="translate(405.534 443)" fill="#ebeff2"/>
      <circle id="Ellipse_50" data-name="Ellipse 50" cx="3.828" cy="3.828" r="3.828" transform="translate(426.162 443)" fill="#ebeff2"/>
      <circle id="Ellipse_51" data-name="Ellipse 51" cx="3.828" cy="3.828" r="3.828" transform="translate(446.789 443)" fill="#ebeff2"/>
      <circle id="Ellipse_52" data-name="Ellipse 52" cx="3.828" cy="3.828" r="3.828" transform="translate(467.417 443)" fill="#ebeff2"/>
      <circle id="Ellipse_53" data-name="Ellipse 53" cx="3.828" cy="3.828" r="3.828" transform="translate(488.044 443)" fill="#ebeff2"/>
      <circle id="Ellipse_54" data-name="Ellipse 54" cx="3.828" cy="3.828" r="3.828" transform="translate(508.672 443)" fill="#ebeff2"/>
      <circle id="Ellipse_55" data-name="Ellipse 55" cx="3.828" cy="3.828" r="3.828" transform="translate(529.3 443)" fill="#ebeff2"/>
      <circle id="Ellipse_56" data-name="Ellipse 56" cx="3.828" cy="3.828" r="3.828" transform="translate(549.927 443)" fill="#ebeff2"/>
    </g>
  </g>
</svg>
